Semester_5/Structural and Functional Organization of Computers/labs/Lab4/lab_4/Lab4.vcd
$comment
Copyright (C) 1991-2009 Altera Corporation
Your use of Altera Corporation's design tools, logic functions 
and other software and tools, and its AMPP partner logic 
functions, and any output files from any of the foregoing 
(including device programming or simulation files), and any 
associated documentation or information are expressly subject 
to the terms and conditions of the Altera Program License 
Subscription Agreement, Altera MegaCore Function License 
Agreement, or other applicable license agreement, including, 
without limitation, that your use is for the sole purpose of 
programming logic devices manufactured by Altera and sold by 
Altera or its authorized distributors.  Please refer to the 
applicable agreement for further details.
$end

$date 
  11/10/2023 10:42:50 
$end
$version 
 QUARTUS_VCD_EXPORT 1.0 
$end
$timescale
  1 ps
$end
$scope module main_block $end
$var reg 1 ! clk $end
$var reg 4 " CONTROL_BUS[3:0] $end
$var reg 8 # ADDRESS_BUS[7:0] $end
$var reg 6 $ DATA_BUS[5:0] $end
$var reg 8 % AR[7:0] $end
$var reg 6 & DR[5:0] $end
$var reg 3 ' IR[2:0] $end
$var reg 6 ( AX[5:0] $end
$var reg 6 ) BX[5:0] $end
$var reg 6 * CX[5:0] $end
$var reg 6 + DX[5:0] $end
$upscope $end
$enddefinitions $end
#0
$dumpvars
0!
bZ "
bZ #
bZ $
bZ %
bZ &
bZ '
bZ (
bZ )
bZ *
bZ +
$end
#5000
1!
b1 "
b0 #
b0 %
#10000
0!
b1000 $
b1000 &
#15000
1!
bZ "
bZ #
bZ %
#20000
0!
bZ $
bZ &
#25000
1!
b1 "
b1 #
b1 %
#30000
0!
b1011 $
b1011 &
#35000
1!
bZ "
bZ #
bZ %
#40000
0!
bZ $
bZ &
#45000
1!
b1 "
b10 #
b10 %
#50000
0!
b1100 $
b1100 &
#55000
1!
bZ "
bZ #
bZ %
#60000
0!
bZ $
bZ &
#65000
1!
b10 "
b1011 #
b1100 $
b1011 %
b1100 &
b1 '
#70000
0!
#75000
1!
b1 "
b11 #
b11 %
bZ '
#80000
0!
b1000 $
b1000 &
#85000
1!
bZ "
bZ #
bZ %
#90000
0!
bZ $
bZ &
#95000
1!
b1 "
b100 #
b100 %
#100000
0!
b1110 $
b1110 &
#105000
1!
bZ "
bZ #
bZ %
#110000
0!
bZ $
bZ &
#115000
1!
b1 "
b101 #
b101 %
#120000
0!
b1110 $
b1110 &
#125000
1!
bZ "
bZ #
bZ %
#130000
0!
bZ $
bZ &
#135000
1!
b10 "
b1110 #
b1110 $
b1110 %
b1110 &
b1 '
#140000
0!
#145000
1!
b1 "
b110 #
b110 %
bZ '
#150000
0!
b10001 $
b10001 &
#155000
1!
bZ "
bZ #
bZ %
#160000
0!
bZ $
bZ &
#165000
1!
b1 "
b111 #
b111 %
#170000
0!
b101 $
b101 &
#175000
1!
bZ "
bZ #
bZ %
#180000
0!
bZ $
bZ &
#185000
1!
b1 "
b1000 #
b1000 %
#190000
0!
b0 $
b0 &
#195000
1!
bZ "
bZ #
bZ %
#200000
0!
bZ $
bZ &
#205000
1!
b100 "
b1000101 #
b0 $
b1000101 %
b0 &
b10 '
#210000
0!
#215000
1!
b1 "
b1001011 #
bZ $
b1001011 %
bZ &
bZ '
#220000
0!
b1000 $
b1000 &
#225000
1!
bZ "
bZ #
bZ %
#230000
0!
bZ $
bZ &
#235000
1!
b1 "
b1001100 #
b1001100 %
#240000
0!
b1010 $
b1010 &
#245000
1!
bZ "
bZ #
bZ %
#250000
0!
bZ $
bZ &
#255000
1!
b1 "
b1001101 #
b1001101 %
#260000
0!
b1010 $
b1010 &
#265000
1!
bZ "
bZ #
bZ %
#270000
0!
bZ $
bZ &
#275000
1!
b10 "
b1010 #
b1010 $
b1010 %
b1010 &
b1 '
#280000
0!
#285000
1!
b1 "
b1001110 #
b1001110 %
bZ '
#290000
0!
b10010 $
b10010 &
#295000
1!
bZ "
bZ #
bZ %
#300000
0!
bZ $
bZ &
#305000
1!
b1 "
b1001111 #
b1001111 %
#310000
0!
b110001 $
b110001 &
#315000
1!
bZ "
bZ #
bZ %
#320000
0!
bZ $
bZ &
#325000
1!
b1 "
b1010000 #
b1010000 %
#330000
0!
b0 $
b0 &
#335000
1!
bZ "
bZ #
bZ %
#340000
0!
bZ $
bZ &
#345000
1!
b100 "
b10110001 #
b0 $
b10110001 %
b0 &
b10 '
bX (
#350000
0!
#355000
1!
b1 "
b0 #
bZ $
b0 %
bZ &
bZ '
bZ (
#360000
0!
b1000 $
b1000 &
#365000
1!
bZ "
bZ #
bZ %
#370000
0!
bZ $
bZ &
#375000
1!
b1 "
b1 #
b1 %
#380000
0!
b1011 $
b1011 &
#385000
1!
bZ "
bZ #
bZ %
#390000
0!
bZ $
bZ &
#395000
1!
b1 "
b10 #
b10 %
#400000
0!
b1100 $
b1100 &
#405000
1!
bZ "
bZ #
bZ %
#410000
0!
bZ $
bZ &
#415000
1!
b10 "
b1011 #
b1100 $
b1011 %
b1100 &
b1 '
#420000
0!
#425000
1!
b1 "
b11 #
b11 %
bZ '
#430000
0!
b1000 $
b1000 &
#435000
1!
bZ "
bZ #
bZ %
#440000
0!
bZ $
bZ &
#445000
1!
b1 "
b100 #
b100 %
#450000
0!
b1110 $
b1110 &
#455000
1!
bZ "
bZ #
bZ %
#460000
0!
bZ $
bZ &
#465000
1!
b1 "
b101 #
b101 %
#470000
0!
b1110 $
b1110 &
#475000
1!
bZ "
bZ #
bZ %
#480000
0!
bZ $
bZ &
#485000
1!
b10 "
b1110 #
b1110 $
b1110 %
b1110 &
b1 '
#490000
0!
#495000
1!
b1 "
b110 #
b110 %
bZ '
#500000
0!
b10001 $
b10001 &
#505000
1!
bZ "
bZ #
bZ %
#510000
0!
bZ $
bZ &
#515000
1!
b1 "
b111 #
b111 %
#520000
0!
b101 $
b101 &
#525000
1!
bZ "
bZ #
bZ %
#530000
0!
bZ $
bZ &
#535000
1!
b1 "
b1000 #
b1000 %
#540000
0!
b0 $
b0 &
#545000
1!
bZ "
bZ #
bZ %
#550000
0!
bZ $
bZ &
#555000
1!
b100 "
b1000101 #
b0 $
b1000101 %
b0 &
b10 '
#560000
0!
#565000
1!
b1 "
b1001011 #
bZ $
b1001011 %
bZ &
bZ '
#570000
0!
b1000 $
b1000 &
#575000
1!
bZ "
bZ #
bZ %
#580000
0!
bZ $
bZ &
#585000
1!
b1 "
b1001100 #
b1001100 %
#590000
0!
b1010 $
b1010 &
#595000
1!
bZ "
bZ #
bZ %
#600000
0!
bZ $
bZ &
#605000
1!
b1 "
b1001101 #
b1001101 %
#610000
0!
b1010 $
b1010 &
#615000
1!
bZ "
bZ #
bZ %
#620000
0!
bZ $
bZ &
#625000
1!
b10 "
b1010 #
b1010 $
b1010 %
b1010 &
b1 '
#630000
0!
#635000
1!
b1 "
b1001110 #
b1001110 %
bZ '
#640000
0!
b10010 $
b10010 &
#645000
1!
bZ "
bZ #
bZ %
#650000
0!
bZ $
bZ &
#655000
1!
b1 "
b1001111 #
b1001111 %
#660000
0!
b110001 $
b110001 &
#665000
1!
bZ "
bZ #
bZ %
#670000
0!
bZ $
bZ &
#675000
1!
b1 "
b1010000 #
b1010000 %
#680000
0!
b0 $
b0 &
#685000
1!
bZ "
bZ #
bZ %
#690000
0!
bZ $
bZ &
#695000
1!
b100 "
b10110001 #
b0 $
b10110001 %
b0 &
b10 '
bX (
#700000
0!
#705000
1!
b1 "
b0 #
bZ $
b0 %
bZ &
bZ '
bZ (
#710000
0!
b1000 $
b1000 &
#715000
1!
bZ "
bZ #
bZ %
#720000
0!
bZ $
bZ &
#725000
1!
b1 "
b1 #
b1 %
#730000
0!
b1011 $
b1011 &
#735000
1!
bZ "
bZ #
bZ %
#740000
0!
bZ $
bZ &
#745000
1!
b1 "
b10 #
b10 %
#750000
0!
b1100 $
b1100 &
#755000
1!
bZ "
bZ #
bZ %
#760000
0!
bZ $
bZ &
#765000
1!
b10 "
b1011 #
b1100 $
b1011 %
b1100 &
b1 '
#770000
0!
#775000
1!
b1 "
b11 #
b11 %
bZ '
#780000
0!
b1000 $
b1000 &
#785000
1!
bZ "
bZ #
bZ %
#790000
0!
bZ $
bZ &
#795000
1!
b1 "
b100 #
b100 %
#800000
0!
b1110 $
b1110 &
#805000
1!
bZ "
bZ #
bZ %
#810000
0!
bZ $
bZ &
#815000
1!
b1 "
b101 #
b101 %
#820000
0!
b1110 $
b1110 &
#825000
1!
bZ "
bZ #
bZ %
#830000
0!
bZ $
bZ &
#835000
1!
b10 "
b1110 #
b1110 $
b1110 %
b1110 &
b1 '
#840000
0!
#845000
1!
b1 "
b110 #
b110 %
bZ '
#850000
0!
b10001 $
b10001 &
#855000
1!
bZ "
bZ #
bZ %
#860000
0!
bZ $
bZ &
#865000
1!
b1 "
b111 #
b111 %
#870000
0!
b101 $
b101 &
#875000
1!
bZ "
bZ #
bZ %
#880000
0!
bZ $
bZ &
#885000
1!
b1 "
b1000 #
b1000 %
#890000
0!
b0 $
b0 &
#895000
1!
bZ "
bZ #
bZ %
#900000
0!
bZ $
bZ &
#905000
1!
b100 "
b1000101 #
b0 $
b1000101 %
b0 &
b10 '
#910000
0!
#915000
1!
b1 "
b1001011 #
bZ $
b1001011 %
bZ &
bZ '
#920000
0!
b1000 $
b1000 &
#925000
1!
bZ "
bZ #
bZ %
#930000
0!
bZ $
bZ &
#935000
1!
b1 "
b1001100 #
b1001100 %
#940000
0!
b1010 $
b1010 &
#945000
1!
bZ "
bZ #
bZ %
#950000
0!
bZ $
bZ &
#955000
1!
b1 "
b1001101 #
b1001101 %
#960000
0!
b1010 $
b1010 &
#965000
1!
bZ "
bZ #
bZ %
#970000
0!
bZ $
bZ &
#975000
1!
b10 "
b1010 #
b1010 $
b1010 %
b1010 &
b1 '
#980000
0!
#985000
1!
b1 "
b1001110 #
b1001110 %
bZ '
#990000
0!
b10010 $
b10010 &
#995000
1!
bZ "
bZ #
bZ %
